four_full_adder/simulation/qsim/f_adder.msim.vcd
$comment
	File created using the following command:
		vcd file f_adder.msim.vcd -direction
$end
$date
	Tue May 15 17:27:40 2018
$end
$version
	ModelSim Version 10.1d
$end
$timescale
	1ps
$end
$scope module Block1_vlg_vec_tst $end
$var reg 1 ! a $end
$var reg 1 " b $end
$var reg 1 # c $end
$var reg 1 $ d $end
$var reg 1 % e $end
$var reg 1 & f $end
$var reg 1 ' g $end
$var reg 1 ( h $end
$var reg 1 ) i $end
$var wire 1 * y1 $end
$var wire 1 + y2 $end
$var wire 1 , y3 $end
$var wire 1 - y4 $end
$var wire 1 . y5 $end
$var wire 1 / sampler $end
$scope module i1 $end
$var wire 1 0 gnd $end
$var wire 1 1 vcc $end
$var wire 1 2 unknown $end
$var tri1 1 3 devclrn $end
$var tri1 1 4 devpor $end
$var tri1 1 5 devoe $end
$var wire 1 6 y1~output_o $end
$var wire 1 7 y2~output_o $end
$var wire 1 8 y3~output_o $end
$var wire 1 9 y4~output_o $end
$var wire 1 : y5~output_o $end
$var wire 1 ; a~input_o $end
$var wire 1 < c~input_o $end
$var wire 1 = b~input_o $end
$var wire 1 > inst|u2|SO~combout $end
$var wire 1 ? e~input_o $end
$var wire 1 @ d~input_o $end
$var wire 1 A inst3|u1|SO~combout $end
$var wire 1 B inst3|u2|SO~combout $end
$var wire 1 C f~input_o $end
$var wire 1 D g~input_o $end
$var wire 1 E inst1|u2|SO~combout $end
$var wire 1 F h~input_o $end
$var wire 1 G i~input_o $end
$var wire 1 H inst1|u1|SO~combout $end
$var wire 1 I inst2|u2|SO~combout $end
$var wire 1 J inst2|u3|c~combout $end
$upscope $end
$upscope $end
$enddefinitions $end
#0
$dumpvars
0!
0"
0#
0$
0%
0&
1'
1(
1)
0*
0+
1,
1-
1.
x/
00
11
x2
13
14
15
06
07
18
19
1:
0;
0<
0=
0>
0?
0@
0A
0B
0C
1D
1E
1F
1G
0H
1I
1J
$end
#25000
1!
0(
0)
1;
0F
0G
0/
1A
1>
1H
16
1*
0E
1B
08
17
0,
1+
#37500
1"
1=
1/
0A
0>
0H
06
0*
1E
0B
18
07
1,
0+
#50000
0'
0!
0D
0;
0/
1A
0J
0I
0E
1>
1H
0:
09
08
16
0.
0-
0,
1*
1E
1B
18
17
1,
1+
1J
1I
1:
19
1.
1-
#52500
1$
1@
1/
0A
0H
0E
0B
08
07
0,
0+
0J
0I
0:
09
0.
0-
#60000
1%
1?
0/
1H
1E
1B
18
17
1,
1+
1J
1I
1:
19
1.
1-
#75000
1#
0"
1!
1<
0=
1;
1/
0>
06
0*
#100000
1&
0!
1C
0;
0/
0H
0E
1>
08
16
0,
1*
0J
0I
0:
09
0.
0-
#105000
0$
0@
1/
1A
0B
07
0+
#112500
1"
1=
0/
0>
06
0*
#115000
1(
1F
1/
1J
1I
1:
19
1.
1-
#120000
0%
0?
0/
1B
17
1+
#122500
1'
1D
1/
0J
0I
1E
0:
09
18
0.
0-
1,
#125000
1!
1;
0/
1>
16
1*
#137500
1)
1G
1/
1J
1I
1:
19
1.
1-
#150000
0#
0"
0!
0<
0=
0;
0/
0A
0>
1H
06
0*
0E
0B
08
07
0,
0+
#157500
1$
1@
1/
1A
0H
1E
1B
18
17
1,
1+
#175000
1!
1;
0/
0A
1>
1H
16
1*
0E
0B
08
07
0,
0+
#180000
1%
1?
1/
0H
1E
1B
18
17
1,
1+
#187500
1"
1=
0/
1A
0>
06
0*
0B
07
0+
#195000
0'
0D
1/
0I
0E
09
08
0-
0,
#200000
0&
0!
0C
0;
0/
1H
0A
1E
1>
18
16
1,
1*
1I
1B
19
17
1-
1+
#205000
0(
0F
1/
0I
09
0-
#210000
0$
0@
0/
1A
0B
07
0+
#225000
1#
0"
1!
1<
0=
1;
1/
0>
06
0*
#240000
0%
0?
0/
1B
17
1+
#250000
0)
0!
0G
0;
1/
1I
1>
19
16
1-
1*
#262500
1$
1"
1@
1=
0/
0A
0>
0H
06
0*
0E
0B
08
07
0,
0+
0J
0I
0:
09
0.
0-
#267500
1'
1D
1/
1J
1I
1E
1:
19
18
1.
1-
1,
#275000
1!
1;
0/
1>
16
1*
#295000
1(
1F
1/
0J
0I
0:
09
0.
0-
#300000
1&
0#
1%
0"
0!
1C
0<
1?
0=
0;
0/
1A
0>
1B
06
17
0*
1+
0B
07
0+
#315000
0$
0@
1/
0A
1B
17
1+
#325000
1!
1;
0/
1A
1>
16
1*
0B
07
0+
#337500
1"
1=
1/
0A
0>
06
0*
1B
17
1+
#340000
0'
0D
0/
1J
1I
0E
1:
19
08
1.
1-
0,
#350000
0!
0;
1/
1A
1>
16
1*
0B
07
0+
#360000
0%
0?
0/
1B
17
1+
#362500
1)
1G
1/
0I
09
0-
#367500
1$
1@
0/
0A
1H
1E
0B
18
07
1,
0+
1I
19
1-
#375000
1#
0"
1!
1<
0=
1;
1/
0>
06
0*
#385000
0(
0F
0/
0I
09
0-
#400000
0&
0!
0C
0;
1/
0H
0E
1>
08
16
0,
1*
1I
19
1-
#412500
1'
1"
1D
1=
0/
0I
1E
0>
09
18
06
0-
1,
0*
#420000
1%
0$
1?
0@
1/
1H
1A
0E
1B
08
17
0,
1+
0B
07
0+
#425000
1!
1;
0/
1>
16
1*
#450000
0#
0"
0!
0<
0=
0;
1/
0A
0>
06
0*
1B
17
1+
#472500
1$
1@
0/
1A
0B
07
0+
#475000
0)
1(
1!
0G
1F
1;
1/
0A
0J
1>
0:
16
0.
1*
1B
17
1+
#480000
0%
0?
0/
0H
1E
0B
18
07
1,
0+
#485000
0'
0D
1/
1J
1I
0E
1:
19
08
1.
1-
0,
#487500
1"
1=
0/
1A
0>
1H
06
0*
1E
1B
18
17
1,
1+
0J
0I
0:
09
0.
0-
#500000
1&
0!
1C
0;
1/
0H
0A
0E
1>
1H
08
16
0,
1*
1J
1I
1E
0B
1:
19
18
07
1.
1-
1,
0+
0J
0I
0:
09
0.
0-
#525000
1#
0$
0"
1!
1<
0@
0=
1;
0/
1A
0>
0H
06
0*
0E
1B
08
17
0,
1+
1J
1I
1:
19
1.
1-
#540000
1%
1?
1/
0B
07
0+
#550000
0!
0;
0/
1>
16
1*
#557500
1'
1D
1/
0J
0I
1E
0:
09
18
0.
0-
1,
#562500
1"
1=
0/
0>
06
0*
#565000
0(
0F
1/
1J
1I
1:
19
1.
1-
#575000
1!
1;
0/
1>
16
1*
#577500
1$
1@
1/
0A
1B
17
1+
#587500
1)
1G
0/
0I
09
0-
#600000
0&
0#
0%
0"
0!
0C
0<
0?
0=
0;
1/
1A
0>
0B
1H
06
07
0*
0+
0E
1B
08
17
0,
1+
#625000
1!
1;
0/
0A
1>
0H
16
1*
1E
0B
18
07
1,
0+
#630000
0'
0$
0D
0@
1/
1A
1I
0E
1H
19
08
1-
0,
1E
1B
18
17
1,
1+
0I
09
0-
#637500
1"
1=
0/
0A
0>
0H
06
0*
0E
0B
08
07
0,
0+
1I
19
1-
#650000
0!
0;
1/
1A
1>
1H
16
1*
1E
1B
18
17
1,
1+
0I
09
0-
#655000
1(
1F
0/
1I
19
1-
#660000
1%
1?
1/
0B
07
0+
#675000
1#
0"
1!
1<
0=
1;
0/
0>
06
0*
#682500
1$
1@
1/
0A
1B
17
1+
#700000
0)
1&
0!
0G
1C
0;
0/
0H
0J
0I
0E
1>
0:
09
08
16
0.
0-
0,
1*
1J
1I
1:
19
1.
1-
#702500
1'
1D
1/
0J
0I
1E
0:
09
18
0.
0-
1,
#712500
1"
1=
0/
0>
06
0*
#720000
0%
0?
1/
1H
0E
0B
08
07
0,
0+
#725000
1!
1;
0/
1>
16
1*
#735000
0$
0@
1/
1A
0H
1E
1B
18
17
1,
1+
#745000
0(
0F
0/
1J
1I
1:
19
1.
1-
#750000
0#
0"
0!
0<
0=
0;
1/
0A
0>
1H
06
0*
0E
0B
08
07
0,
0+
#775000
0'
1!
0D
1;
0/
1A
1E
1>
0H
18
16
1,
1*
0E
1B
08
17
0,
1+
0J
0I
0:
09
0.
0-
#780000
1%
1?
1/
0B
07
0+
#787500
1$
1"
1@
1=
0/
0>
06
0*
#800000
0&
0!
0C
0;
1/
1H
0A
1E
1>
18
16
1,
1*
1J
1I
1B
1:
19
17
1.
1-
1+
#812500
1)
1G
0/
0I
09
0-
#825000
1#
0"
1!
1<
0=
1;
1/
0>
06
0*
#835000
1(
1F
0/
1I
19
1-
#840000
0%
0$
0?
0@
1/
0H
1A
0E
0B
1H
08
07
0,
0+
0I
1E
1B
09
18
17
0-
1,
1+
1I
19
1-
#847500
1'
1D
0/
0E
08
0,
#850000
0!
0;
1/
1>
16
1*
#862500
1"
1=
0/
0>
06
0*
#875000
1!
1;
1/
1>
16
1*
#892500
1$
1@
0/
0A
0H
1E
0B
18
07
1,
0+
#900000
1&
0#
1%
0"
0!
1C
0<
1?
0=
0;
1/
1A
0>
1B
06
17
0*
1+
0B
07
0+
#920000
0'
0D
0/
0I
0E
09
08
0-
0,
#925000
0)
0(
1!
0G
0F
1;
1/
0A
0J
1>
0:
16
0.
1*
1B
17
1+
#937500
1"
1=
0/
1A
0>
06
0*
0B
07
0+
#945000
0$
0@
1/
0A
1B
17
1+
#950000
0!
0;
0/
1A
1>
16
1*
0B
07
0+
#960000
0%
0?
1/
1B
17
1+
#975000
1#
0"
1!
1<
0=
1;
0/
0>
06
0*
#992500
1'
1D
1/
1J
1I
1E
1:
19
18
1.
1-
1,
#997500
1$
1@
0/
0A
1H
0E
0B
08
07
0,
0+
